module gokotoba

go 1.16

require (
	github.com/alecthomas/template v0.0.0-20190718012654-fb15b899a751
	github.com/georgysavva/scany v0.2.9
	github.com/go-playground/validator/v10 v10.9.0
	github.com/jackc/pgconn v1.10.0
	github.com/jackc/pgx/v4 v4.13.0
	github.com/json-iterator/go v1.1.12
	github.com/labstack/echo/v4 v4.6.1
	github.com/rs/zerolog v1.25.0
	github.com/spf13/viper v1.9.0
	github.com/swaggo/echo-swagger v1.1.4
	github.com/swaggo/swag v1.7.0
	golang.org/x/crypto v0.0.0-20210817164053-32db794688a5
)
